GassySnake
0
0
256
2
1
100
10
10
11
11
11
10
10
10
10
10
10
10
10
10
11
11
10
10
12
19
12
10
11
12
12
11
10
10
10
11
13
19
10
10
12
19
12
10
11
19
19
11
10
10
11
12
19
19
10
10
11
11
11
10
11
12
12
11
10
10
11
19
13
12
10
10
11
11
11
10
11
11
11
10
10
10
11
11
11
10
10
11
12
19
12
12
13
19
11
11
11
11
10
10
10
10
10
11
19
12
12
19
19
12
11
12
19
13
11
11
10
10
10
12
12
12
12
13
13
11
10
12
19
14
19
12
11
11
11
13
19
13
12
19
11
10
10
11
11
13
19
12
11
19
19
13
19
19
13
12
12
11
10
11
11
12
11
11
12
12
11
12
13
19
12
11
19
11
10
11
19
11
10
10
11
19
10
11
12
12
11
11
12
12
11
11
11
11
10
10
11
11
10
12
19
13
11
12
12
19
11
10
10
10
11
11
11
10
11
14
19
15
19
12
19
13
12
10
10
10
11
19
11
10
11
19
19
19
14
14
13
19
11
10
10
10
11
11
11
10
11
13
19
14
19
19
12
11
11
10
10
10
10
10
10
10
0
0
1
1
1
0
0
0
0
0
0
0
0
0
1
1
0
0
2
20
2
0
1
2
2
1
0
0
0
1
3
20
0
0
2
20
2
0
1
20
20
1
0
0
1
2
20
20
0
0
1
1
1
0
1
2
2
1
0
0
1
20
3
2
0
0
1
1
1
0
1
1
1
0
0
0
1
1
1
0
0
1
2
20
2
2
3
20
1
1
1
1
0
0
0
0
0
1
20
2
2
20
20
2
1
2
20
3
1
1
0
0
0
2
2
2
2
3
3
1
0
2
20
4
20
2
1
1
1
3
20
3
2
20
1
0
0
1
1
3
20
2
1
20
20
3
20
20
3
2
2
1
0
1
1
2
1
1
2
2
1
2
3
20
2
1
20
1
0
1
20
1
0
0
1
20
0
1
2
2
1
1
2
2
1
1
1
1
0
0
1
1
0
2
20
3
1
2
2
20
1
0
0
0
1
1
1
0
1
4
20
5
20
2
20
3
2
0
0
0
1
20
1
0
1
20
20
20
4
4
3
20
1
0
0
0
1
1
1
0
1
3
20
4
20
20
2
1
1
0
0
0
0
0
0
0
0
100
0
40
