LiquidSnake
9
2
900
2
1
100
11
11
10
10
12
19
19
13
14
19
19
13
11
11
10
10
10
10
10
11
11
11
11
19
13
19
19
12
11
19
19
11
11
11
13
19
16
19
19
19
19
13
19
12
11
11
10
10
11
12
19
12
12
14
19
15
19
12
12
12
11
11
11
19
12
13
19
19
14
13
12
12
11
12
19
11
11
11
13
19
13
12
19
13
19
13
11
11
11
19
10
10
11
11
11
12
19
13
11
10
10
10
10
11
12
12
12
19
15
19
13
11
11
13
12
12
10
10
11
11
11
12
11
11
11
13
13
13
11
11
11
11
11
10
11
19
13
13
19
19
12
10
11
12
19
11
10
10
11
11
19
13
19
11
11
19
19
13
19
12
11
19
11
10
12
13
19
12
12
13
12
11
11
19
12
11
10
10
11
19
13
19
13
12
12
12
12
13
19
13
12
11
11
10
11
19
14
13
11
11
19
11
11
12
12
11
10
11
12
12
19
15
15
19
13
11
11
12
13
19
11
10
10
10
11
12
19
19
12
11
11
11
10
11
19
11
10
11
19
11
19
19
19
19
13
19
12
12
19
13
13
12
11
10
10
12
14
19
12
10
10
10
10
11
11
11
10
11
11
11
13
19
15
13
12
12
19
12
12
13
19
19
11
11
11
12
19
13
13
11
11
10
10
10
10
10
10
10
10
10
12
13
19
11
10
11
11
11
11
19
13
13
12
12
19
13
13
19
12
19
12
11
11
12
12
12
11
12
11
11
19
13
12
12
10
11
11
11
11
12
13
14
19
14
13
19
13
13
14
13
19
11
11
19
19
13
19
14
19
11
12
13
19
11
10
11
19
11
10
11
19
19
19
13
19
12
12
19
19
12
11
12
12
13
12
13
19
19
12
11
19
14
13
14
13
13
12
12
11
12
14
19
14
13
12
12
11
12
12
11
10
11
19
11
11
12
13
12
12
11
19
13
19
19
19
19
11
12
19
12
13
19
13
12
19
13
12
12
11
10
10
11
11
11
11
19
11
11
12
19
11
12
12
13
13
12
11
12
19
12
12
19
12
12
19
14
19
19
11
10
10
10
11
12
13
12
11
12
19
13
10
11
11
11
10
10
10
11
12
13
13
12
11
11
12
19
13
12
11
10
10
11
12
19
19
12
11
14
19
14
10
11
19
13
12
11
11
12
13
19
19
11
10
11
12
12
11
10
10
10
10
12
19
14
12
12
19
14
19
19
11
13
13
19
19
12
13
19
19
14
12
11
10
11
19
11
10
10
11
11
11
12
19
12
11
12
12
13
19
13
19
12
19
14
13
12
19
19
19
12
10
11
11
12
11
11
10
10
11
19
11
11
11
11
12
19
12
11
11
11
11
12
12
19
11
12
13
14
12
12
11
12
19
11
10
10
10
10
12
13
14
13
12
11
12
19
14
13
12
11
10
11
12
13
13
13
19
13
13
13
19
12
12
12
11
10
10
10
12
19
19
19
19
12
13
14
19
19
19
11
11
12
19
12
19
19
14
19
19
19
13
12
12
19
11
10
10
10
13
19
15
14
13
13
19
19
13
13
12
11
19
13
12
14
15
19
13
13
15
19
12
11
19
12
11
10
10
10
12
19
12
11
19
12
13
13
12
11
12
12
19
13
11
19
19
14
12
11
19
12
11
11
12
13
12
11
11
11
13
12
12
11
12
12
12
19
11
11
19
19
19
12
12
14
19
19
13
14
13
12
10
10
11
19
19
11
12
19
13
19
11
10
11
19
12
12
12
12
12
12
11
11
11
19
15
16
19
19
19
12
12
12
13
13
12
12
13
19
14
12
12
10
11
12
13
13
19
11
10
10
11
11
12
12
19
19
19
14
13
19
13
19
19
11
10
12
19
13
12
19
11
10
10
11
19
19
13
12
11
10
11
19
11
11
12
13
12
11
12
14
19
14
12
11
10
12
19
12
11
11
11
10
11
12
14
13
13
19
12
11
11
11
11
10
10
10
10
10
11
19
19
12
10
10
10
11
11
11
10
10
10
10
11
19
12
19
12
11
12
19
1
1
0
0
2
20
20
3
4
20
20
3
1
1
0
0
0
0
0
1
1
1
1
20
3
20
20
2
1
20
20
1
1
1
3
20
6
20
20
20
20
3
20
2
1
1
0
0
1
2
20
2
2
4
20
5
20
2
2
2
1
1
1
20
2
3
20
20
4
3
2
2
1
2
20
1
1
1
3
20
3
2
20
3
20
3
1
1
1
20
0
0
1
1
1
2
20
3
1
0
0
0
0
1
2
2
2
20
5
20
3
1
1
3
2
2
0
0
1
1
1
2
1
1
1
3
3
3
1
1
1
1
1
0
1
20
3
3
20
20
2
0
1
2
20
1
0
0
1
1
20
3
20
1
1
20
20
3
20
2
1
20
1
0
2
3
20
2
2
3
2
1
1
20
2
1
0
0
1
20
3
20
3
2
2
2
2
3
20
3
2
1
1
0
1
20
4
3
1
1
20
1
1
2
2
1
0
1
2
2
20
5
5
20
3
1
1
2
3
20
1
0
0
0
1
2
20
20
2
1
1
1
0
1
20
1
0
1
20
1
20
20
20
20
3
20
2
2
20
3
3
2
1
0
0
2
4
20
2
0
0
0
0
1
1
1
0
1
1
1
3
20
5
3
2
2
20
2
2
3
20
20
1
1
1
2
20
3
3
1
1
0
0
0
0
0
0
0
0
0
2
3
20
1
0
1
1
1
1
20
3
3
2
2
20
3
3
20
2
20
2
1
1
2
2
2
1
2
1
1
20
3
2
2
0
1
1
1
1
2
3
4
20
4
3
20
3
3
4
3
20
1
1
20
20
3
20
4
20
1
2
3
20
1
0
1
20
1
0
1
20
20
20
3
20
2
2
20
20
2
1
2
2
3
2
3
20
20
2
1
20
4
3
4
3
3
2
2
1
2
4
20
4
3
2
2
1
2
2
1
0
1
20
1
1
2
3
2
2
1
20
3
20
20
20
20
1
2
20
2
3
20
3
2
20
3
2
2
1
0
0
1
1
1
1
20
1
1
2
20
1
2
2
3
3
2
1
2
20
2
2
20
2
2
20
4
20
20
1
0
0
0
1
2
3
2
1
2
20
3
0
1
1
1
0
0
0
1
2
3
3
2
1
1
2
20
3
2
1
0
0
1
2
20
20
2
1
4
20
4
0
1
20
3
2
1
1
2
3
20
20
1
0
1
2
2
1
0
0
0
0
2
20
4
2
2
20
4
20
20
1
3
3
20
20
2
3
20
20
4
2
1
0
1
20
1
0
0
1
1
1
2
20
2
1
2
2
3
20
3
20
2
20
4
3
2
20
20
20
2
0
1
1
2
1
1
0
0
1
20
1
1
1
1
2
20
2
1
1
1
1
2
2
20
1
2
3
4
2
2
1
2
20
1
0
0
0
0
2
3
4
3
2
1
2
20
4
3
2
1
0
1
2
3
3
3
20
3
3
3
20
2
2
2
1
0
0
0
2
20
20
20
20
2
3
4
20
20
20
1
1
2
20
2
20
20
4
20
20
20
3
2
2
20
1
0
0
0
3
20
5
4
3
3
20
20
3
3
2
1
20
3
2
4
5
20
3
3
5
20
2
1
20
2
1
0
0
0
2
20
2
1
20
2
3
3
2
1
2
2
20
3
1
20
20
4
2
1
20
2
1
1
2
3
2
1
1
1
3
2
2
1
2
2
2
20
1
1
20
20
20
2
2
4
20
20
3
4
3
2
0
0
1
20
20
1
2
20
3
20
1
0
1
20
2
2
2
2
2
2
1
1
1
20
5
6
20
20
20
2
2
2
3
3
2
2
3
20
4
2
2
0
1
2
3
3
20
1
0
0
1
1
2
2
20
20
20
4
3
20
3
20
20
1
0
2
20
3
2
20
1
0
0
1
20
20
3
2
1
0
1
20
1
1
2
3
2
1
2
4
20
4
2
1
0
2
20
2
1
1
1
0
1
2
4
3
3
20
2
1
1
1
1
0
0
0
0
0
1
20
20
2
0
0
0
1
1
1
0
0
0
0
1
20
2
20
2
1
2
20
0
100
0
200
