SolidSnake
2
1
625
10
4
0
11
13
19
13
11
10
10
10
10
11
19
11
12
19
12
10
10
10
10
10
11
19
11
10
10
19
14
19
19
12
11
11
10
10
11
11
11
12
19
12
11
11
11
10
11
12
12
11
11
11
12
19
14
13
12
19
12
11
11
10
10
10
11
12
12
12
19
12
11
11
19
11
11
12
19
12
13
19
11
11
11
12
19
11
10
11
11
11
11
19
12
13
19
12
12
13
14
13
19
12
19
12
11
11
10
10
11
11
11
10
11
19
11
11
11
11
12
19
13
13
19
19
19
13
12
11
11
10
10
10
10
10
10
10
10
11
11
12
11
12
11
12
11
12
19
19
15
14
19
11
10
10
11
11
11
10
10
11
11
11
10
10
11
19
12
19
11
10
12
13
15
19
13
11
11
10
10
11
19
11
10
10
11
19
11
10
10
11
11
12
11
11
10
11
19
14
19
12
10
10
10
11
12
12
11
11
11
12
11
12
11
11
10
10
10
10
10
10
11
12
19
13
12
10
10
10
11
19
12
11
11
19
11
10
11
19
11
10
11
11
11
10
10
10
11
12
19
12
11
11
11
12
12
19
11
12
12
12
10
11
11
11
11
12
19
11
10
10
11
11
12
12
14
19
13
19
12
12
11
11
12
19
12
10
10
10
10
11
19
12
11
10
10
11
19
11
11
19
19
19
12
19
11
10
10
12
19
12
10
10
10
10
11
11
11
10
10
10
11
11
11
11
12
13
12
11
11
11
10
10
11
11
11
10
11
12
12
12
12
12
11
10
10
10
10
10
10
10
10
10
11
12
12
11
10
11
11
11
10
11
19
19
12
19
19
11
10
10
10
10
11
11
11
10
10
12
19
19
11
10
11
19
12
12
12
13
12
12
13
13
12
10
10
10
10
11
19
11
10
10
19
14
13
11
10
11
12
19
12
19
11
10
11
12
19
11
10
10
10
10
11
11
11
10
10
12
19
12
12
13
13
13
12
13
12
13
11
12
19
12
12
11
12
12
12
11
11
11
11
10
11
12
13
19
19
19
19
12
13
19
13
19
13
12
13
12
19
12
19
19
12
13
19
12
10
10
11
19
13
13
13
12
12
19
19
13
12
13
19
12
19
12
12
12
13
19
13
19
12
10
11
13
13
12
10
10
11
12
13
12
11
11
19
13
13
13
12
12
12
13
12
12
11
11
10
11
19
19
12
10
10
11
19
13
12
11
11
11
12
19
12
19
13
19
19
11
11
11
11
10
11
13
19
13
11
10
11
13
19
19
12
10
10
11
11
12
12
19
13
12
11
11
19
11
10
10
11
12
19
11
10
11
14
19
19
12
10
10
10
10
10
11
11
11
10
10
11
11
11
10
10
10
11
11
11
10
11
19
19
13
11
10
10
10
10
10
10
10
10
10
10
10
10
10
10
11
13
19
13
11
10
10
10
10
11
19
11
12
19
12
10
10
10
10
10
11
19
11
10
10
19
14
19
19
12
11
11
10
10
11
11
11
12
19
12
11
11
11
10
11
12
12
11
11
11
12
19
14
13
12
19
12
11
11
10
10
10
11
12
12
12
19
12
11
11
19
11
11
12
19
12
13
19
11
11
11
12
19
11
10
11
11
11
11
19
12
13
19
12
12
13
14
13
19
12
19
12
11
11
10
10
11
11
11
10
11
19
11
11
11
11
12
19
13
13
19
19
19
13
12
11
11
10
10
10
10
10
10
10
10
11
11
12
11
12
11
12
11
12
19
19
15
14
19
11
10
10
11
11
11
10
10
11
11
11
10
10
11
19
12
19
11
10
12
13
15
19
13
11
11
10
10
11
19
11
10
10
11
19
11
10
10
11
11
12
11
11
10
11
19
14
19
12
10
10
10
11
12
12
11
11
11
12
11
12
11
11
10
10
10
10
10
10
11
12
19
13
12
10
10
10
11
19
12
11
11
19
11
10
11
19
11
10
11
11
11
10
10
10
11
12
19
12
11
11
11
12
12
19
11
12
12
12
10
11
11
11
11
12
19
11
10
10
11
11
12
12
14
19
13
19
12
12
11
11
12
19
12
10
10
10
10
11
19
12
11
10
10
11
19
11
11
19
19
19
12
19
11
10
10
12
19
12
10
10
10
10
11
11
11
10
10
10
11
11
11
11
12
13
12
11
11
11
10
10
11
11
11
10
11
12
12
12
12
12
11
10
10
10
10
10
10
10
10
10
11
12
12
11
10
11
11
11
10
11
19
19
12
19
19
11
10
10
10
10
11
11
11
10
10
12
19
19
11
10
11
19
12
12
12
13
12
12
13
13
12
10
10
10
10
11
19
11
10
10
19
14
13
11
10
11
12
19
12
19
11
10
11
12
19
11
10
10
10
10
11
11
11
10
10
12
19
12
12
13
13
13
12
13
12
13
11
12
19
12
12
11
12
12
12
11
11
11
11
10
11
12
13
19
19
19
19
12
13
19
13
19
13
12
13
12
19
12
19
19
12
13
19
12
10
10
11
19
13
13
13
12
12
19
19
13
12
13
19
12
19
12
12
12
13
19
3
19
12
10
11
13
13
12
10
10
11
12
13
12
11
11
19
13
13
13
12
12
12
13
12
12
11
11
10
11
19
19
12
10
10
11
19
13
12
11
11
11
12
19
12
19
13
19
19
11
11
11
11
10
11
13
19
13
11
10
11
13
19
19
12
10
10
11
11
12
12
19
13
12
11
11
19
11
10
10
11
12
19
11
10
11
14
19
19
12
10
10
10
10
10
11
11
11
10
10
11
11
11
10
10
10
11
11
11
10
11
19
19
13
11
10
10
10
10
10
10
10
10
10
10
10
10
10
10
11
13
19
13
11
10
10
10
10
11
19
11
12
19
12
10
10
10
10
10
11
19
11
10
10
19
14
19
19
12
11
11
10
10
11
11
11
12
19
12
11
11
11
10
11
12
12
11
11
11
12
19
14
13
12
19
12
11
11
10
10
10
11
12
12
12
19
12
11
11
19
11
11
12
19
12
13
19
11
11
11
12
19
11
10
11
11
11
11
19
12
13
19
12
12
13
14
13
19
12
19
12
11
11
10
10
11
11
11
10
11
19
11
11
11
11
12
19
13
13
19
19
19
13
12
11
11
10
10
10
10
10
10
10
10
11
11
12
11
12
11
12
11
12
19
19
15
14
19
11
10
10
11
11
11
10
10
11
11
11
10
10
11
19
12
19
11
10
12
13
15
19
13
11
11
10
10
11
19
11
10
10
11
19
11
10
10
11
11
12
11
11
10
11
19
14
19
12
10
10
10
11
12
12
11
11
11
12
11
12
11
11
10
10
10
10
10
10
11
12
19
13
12
10
10
10
11
19
12
11
11
19
11
10
11
19
11
10
11
11
11
10
10
10
11
12
19
12
11
11
11
12
12
19
11
12
12
12
10
11
11
11
11
12
19
11
10
10
11
11
12
12
14
19
13
19
12
12
11
11
12
19
12
10
10
10
10
11
19
12
11
10
10
11
19
11
11
19
19
19
12
19
11
10
10
12
19
12
10
10
10
10
11
11
11
10
10
10
11
11
11
11
12
13
12
11
11
11
10
10
11
11
11
10
11
12
12
12
12
12
11
10
10
10
10
10
10
10
10
10
11
12
12
11
10
11
11
11
10
11
19
19
12
19
19
11
10
10
10
10
11
11
11
10
10
12
19
19
11
10
11
19
12
12
12
13
12
12
13
13
12
10
10
10
10
11
19
11
10
10
19
14
13
11
10
11
12
19
12
19
11
10
11
12
19
11
10
10
10
10
11
11
11
10
10
12
19
12
12
13
13
13
12
13
12
13
11
12
19
12
12
11
12
12
12
11
11
11
11
10
11
12
13
19
19
19
19
12
13
19
13
19
13
12
13
12
19
12
19
19
12
13
19
12
10
10
11
19
13
13
13
12
12
19
19
13
12
13
19
12
19
12
12
12
13
19
3
19
12
10
11
13
13
12
10
10
11
12
13
12
11
11
19
13
13
13
12
12
12
13
12
12
11
1
10
11
19
19
12
10
10
11
19
13
12
11
11
11
12
19
12
19
13
19
19
11
11
11
11
10
11
13
19
13
11
10
11
13
19
19
12
10
10
11
11
12
12
19
13
12
11
11
19
11
10
10
11
12
19
11
10
11
14
19
19
12
10
10
10
10
10
11
11
11
10
10
11
11
11
10
10
10
11
11
11
10
11
19
19
13
11
10
10
10
10
10
10
10
10
10
10
10
10
10
10
11
13
19
13
1
0
0
0
0
1
19
11
12
19
12
10
10
10
10
10
11
19
11
10
10
19
14
19
19
2
1
1
0
0
1
1
1
2
19
12
11
11
11
10
11
12
12
11
11
11
12
19
14
13
12
19
2
1
1
0
0
0
1
12
12
12
19
12
11
11
19
11
11
12
19
12
13
19
1
1
1
2
19
1
0
1
1
1
11
19
12
13
19
12
12
13
14
13
19
12
19
2
1
1
0
0
1
1
1
0
1
19
11
11
11
11
12
19
13
13
19
19
19
13
12
1
1
0
0
0
0
0
0
0
0
1
1
2
11
12
11
2
1
2
19
19
15
14
19
11
0
0
1
1
1
0
0
1
1
1
0
0
1
19
12
19
1
0
2
13
15
19
13
11
11
0
0
1
19
1
0
0
1
19
1
0
0
1
1
2
1
1
0
1
19
14
19
12
10
10
0
1
2
12
1
1
1
2
11
2
1
1
0
0
0
0
0
0
1
2
19
13
12
10
10
0
1
19
12
11
11
19
11
10
11
19
1
0
1
1
1
0
0
0
1
12
19
12
11
11
1
2
12
19
11
12
12
12
10
11
11
1
1
2
19
1
0
0
1
1
12
12
14
19
13
19
12
12
11
11
12
19
12
10
10
10
10
11
19
2
1
0
0
1
19
11
11
19
19
19
12
19
11
10
10
12
19
12
10
10
10
10
11
11
1
0
0
0
1
1
1
1
2
3
2
11
11
11
10
10
11
11
11
10
11
12
12
12
12
2
1
0
0
0
0
0
0
0
0
0
11
12
12
11
10
11
11
11
10
11
19
19
12
19
19
1
0
0
0
0
1
1
1
0
0
12
19
19
11
10
11
19
12
12
12
13
12
12
13
13
2
0
0
0
0
1
19
1
0
0
19
14
13
11
10
11
12
19
12
19
11
10
11
12
19
1
0
0
0
0
1
11
1
0
0
12
19
12
12
13
13
13
12
13
12
13
11
12
19
12
2
1
2
2
2
1
11
1
1
0
11
12
13
19
19
19
19
12
13
19
13
19
13
12
13
12
19
12
19
19
12
13
19
2
0
10
11
19
13
13
13
12
12
19
19
13
12
13
19
12
19
12
12
12
13
19
3
19
2
0
11
13
13
12
10
10
11
12
13
12
11
11
19
13
13
13
12
12
12
13
12
12
11
1
0
11
19
19
12
10
10
11
19
13
12
1
1
1
2
19
12
19
13
19
19
11
11
11
1
0
11
13
19
13
11
10
11
13
19
19
2
0
0
1
1
2
2
19
3
2
1
1
19
1
0
10
11
12
19
11
10
11
14
19
19
2
0
0
0
0
0
1
1
1
0
0
1
1
1
0
10
10
11
11
11
10
11
19
19
13
1
0
0
0
0
0
0
0
0
0
0
0
0
0
0
11
13
19
13
1
0
0
0
0
1
19
11
12
19
12
10
10
10
10
10
11
19
11
10
10
19
14
19
19
2
1
1
0
0
1
1
1
2
19
12
11
11
11
10
11
12
12
11
11
11
12
19
14
13
12
19
2
1
1
0
0
0
1
12
12
12
19
12
11
11
19
11
11
12
19
12
13
19
1
1
1
2
19
1
0
1
1
1
11
19
12
13
19
12
12
13
14
3
19
12
19
2
1
1
0
0
1
1
1
0
1
19
11
11
11
11
12
19
13
13
19
19
19
13
12
1
1
0
0
0
0
0
0
0
0
1
1
2
11
12
11
2
1
2
19
19
15
14
19
11
0
0
1
1
1
0
0
1
1
1
0
0
1
19
12
19
1
0
2
13
15
19
13
11
11
0
0
1
19
1
0
0
1
19
1
0
0
1
1
2
1
1
0
1
19
14
19
12
10
10
0
1
2
12
1
1
1
2
11
2
1
1
0
0
0
0
0
0
1
2
19
13
12
10
10
0
1
19
12
11
11
19
11
10
11
19
1
0
1
1
1
0
0
0
1
12
19
12
11
11
1
2
12
19
11
12
12
12
10
11
11
1
1
2
19
1
0
0
1
1
12
12
14
19
13
19
12
12
11
11
12
19
12
10
10
10
10
11
19
2
1
0
0
1
19
11
11
19
19
19
12
19
11
10
10
12
19
12
10
10
10
10
11
11
1
0
0
0
1
1
1
1
2
3
2
11
11
11
10
10
11
11
11
10
11
12
12
12
12
2
1
0
0
0
0
0
0
0
0
0
11
12
12
11
10
11
11
11
10
11
19
19
12
19
19
1
0
0
0
0
1
1
1
0
0
12
19
19
11
10
11
19
12
12
12
13
12
12
13
13
2
0
0
0
0
1
19
1
0
0
19
14
13
11
10
11
12
19
12
19
11
10
11
12
19
1
0
0
0
0
1
11
1
0
0
12
19
12
12
13
13
13
12
13
12
13
11
12
19
12
2
1
2
2
2
1
11
1
1
0
11
12
13
19
19
19
19
12
13
19
13
19
13
12
13
12
19
12
19
19
12
13
19
2
0
10
11
19
13
13
13
12
12
19
19
13
12
13
19
12
19
12
12
12
13
19
3
19
2
0
11
13
13
12
10
10
11
12
13
12
11
11
19
13
13
13
12
12
12
13
12
12
11
1
0
11
19
19
12
10
10
11
19
13
12
1
1
1
2
19
12
19
13
19
19
11
11
11
1
0
11
13
19
13
11
10
11
13
19
19
2
0
0
1
1
2
2
19
3
2
1
1
19
1
0
10
11
12
19
11
10
11
14
19
19
2
0
0
0
0
0
1
1
1
0
0
1
1
1
0
10
10
11
11
11
10
11
19
19
13
1
0
0
0
0
0
0
0
0
0
0
0
0
0
0
11
13
19
13
1
0
0
0
0
1
19
11
12
19
12
10
10
10
10
10
11
19
1
0
0
19
14
19
19
2
1
1
0
0
1
1
1
2
19
12
11
11
11
10
11
12
12
1
1
1
12
19
14
13
12
19
2
1
1
0
0
0
1
12
12
12
19
12
11
11
19
11
11
12
19
12
13
19
1
1
1
2
19
1
0
1
1
1
11
19
12
13
19
12
12
13
14
3
19
12
19
2
1
1
0
0
1
1
1
0
1
19
11
11
11
11
12
19
13
13
19
19
19
13
12
1
1
0
0
0
0
0
0
0
0
1
1
2
11
12
11
2
1
2
19
19
15
14
19
11
0
0
1
1
1
0
0
1
1
1
0
0
1
19
12
19
1
0
2
13
15
19
13
11
11
0
0
1
19
1
0
0
1
19
1
0
0
1
1
2
1
1
0
1
19
14
19
12
10
10
0
1
2
12
1
1
1
2
11
2
1
1
0
0
0
0
0
0
1
2
19
13
12
10
10
0
1
19
12
11
11
19
11
10
11
19
1
0
1
1
1
0
0
0
1
12
19
12
11
11
1
2
12
19
11
12
12
12
10
11
11
1
1
2
19
1
0
0
1
1
12
12
14
19
13
19
12
12
11
11
12
19
12
10
10
10
10
11
19
2
1
0
0
1
19
11
11
19
19
19
12
19
11
10
10
12
19
12
10
10
10
10
11
11
1
0
0
0
1
1
1
1
2
3
2
11
11
11
10
10
11
11
11
10
11
12
12
12
12
2
1
0
0
0
0
0
0
0
0
0
11
12
12
11
10
11
11
11
10
11
19
19
12
19
19
1
0
0
0
0
1
1
1
0
0
12
19
19
11
10
11
19
12
12
12
13
12
12
13
13
2
0
0
0
0
1
19
1
0
0
19
14
13
11
10
11
12
19
12
19
11
10
11
12
19
1
0
0
0
0
1
11
1
0
0
12
19
12
12
13
13
13
12
13
12
13
11
12
19
12
2
1
2
2
2
1
11
1
1
0
11
12
13
19
19
19
19
12
13
19
13
19
13
12
13
12
19
12
19
19
12
13
19
2
0
10
11
19
13
13
13
12
12
19
19
13
12
13
19
12
19
12
12
12
13
19
3
19
2
0
11
13
13
12
10
10
11
12
13
12
11
11
19
13
13
13
12
12
12
13
12
12
11
1
0
11
19
19
12
10
10
11
19
13
12
1
1
1
2
19
12
19
13
19
19
11
11
11
1
0
11
13
19
13
11
10
11
13
19
19
2
0
0
1
1
2
2
19
3
2
1
1
19
1
0
10
11
12
19
11
10
11
14
19
19
2
0
0
0
0
0
1
1
1
0
0
1
1
1
0
10
10
11
11
11
10
11
19
19
13
1
0
0
0
0
0
0
0
0
0
0
0
0
0
0
11
13
19
13
1
0
0
0
0
1
19
11
12
19
12
10
10
10
10
10
11
19
1
0
0
19
14
19
19
2
1
1
0
0
1
1
1
2
19
12
11
11
11
10
11
12
12
1
1
1
12
19
14
13
12
19
2
1
1
0
0
0
1
12
12
12
19
12
11
11
19
11
11
12
19
12
13
19
1
1
1
2
19
1
0
1
1
1
11
19
12
13
19
12
12
13
14
3
19
12
19
2
1
1
0
0
1
1
1
0
1
19
11
11
11
11
12
19
13
13
19
19
19
13
12
1
1
0
0
0
0
0
0
0
0
1
1
2
11
12
11
2
1
2
19
19
15
14
19
11
0
0
1
1
1
0
0
1
1
1
0
0
1
19
12
19
1
0
2
13
15
19
13
11
11
0
0
1
19
1
0
0
1
19
1
0
0
1
1
2
1
1
0
1
19
14
19
12
10
10
0
1
2
12
1
1
1
2
11
2
1
1
0
0
0
0
0
0
1
2
19
13
12
10
10
0
1
19
12
11
11
19
11
10
11
19
1
0
1
1
1
0
0
0
1
12
19
12
11
11
1
2
12
19
11
12
12
12
10
11
11
1
1
2
19
1
0
0
1
1
12
12
14
19
13
19
12
12
11
11
12
19
12
10
10
10
10
11
19
2
1
0
0
1
19
11
11
19
19
19
12
19
11
10
10
12
19
12
10
10
10
10
11
11
1
0
0
0
1
1
1
1
2
3
2
11
11
11
10
10
11
11
11
10
11
12
12
12
12
2
1
0
0
0
0
0
0
0
0
0
11
12
12
11
10
11
11
11
10
11
19
19
12
19
19
1
0
0
0
0
1
1
1
0
0
12
19
19
11
10
11
19
12
12
12
13
12
12
13
13
2
0
0
0
0
1
19
1
0
0
19
14
13
11
10
1
12
19
12
19
11
10
11
12
19
1
0
0
0
0
1
11
1
0
0
12
19
12
12
13
13
13
12
13
12
13
11
12
19
12
2
1
2
2
2
1
11
1
1
0
11
12
13
19
19
19
19
12
13
19
13
19
13
12
13
12
19
12
19
19
12
13
19
2
0
10
11
19
13
13
13
12
12
19
19
13
12
13
19
12
19
12
12
12
13
19
3
19
2
0
11
13
13
12
10
10
11
12
13
12
11
11
19
13
13
13
12
12
12
13
12
12
11
1
0
11
19
19
12
10
10
11
19
13
12
1
1
1
2
19
12
19
13
19
19
11
11
11
1
0
11
13
19
13
11
10
11
13
19
19
2
0
0
1
1
2
2
19
3
2
1
1
19
1
0
10
11
12
19
11
10
11
14
19
19
2
0
0
0
0
0
1
1
1
0
0
1
1
1
0
10
10
11
11
11
10
11
19
19
13
1
0
0
0
0
0
0
0
0
0
0
0
0
0
0
11
13
19
13
1
0
0
0
0
1
19
11
12
19
12
10
10
10
10
10
11
19
1
0
0
19
14
19
19
2
1
1
0
0
1
1
1
2
19
12
11
11
11
10
11
12
12
1
1
1
12
19
14
13
12
19
2
1
1
0
0
0
1
12
12
12
19
12
11
11
19
11
11
12
19
12
13
19
1
1
1
2
19
1
0
1
1
1
11
19
12
13
19
12
12
13
14
3
19
12
19
2
1
1
0
0
1
1
1
0
1
19
11
11
11
11
12
19
13
13
19
19
19
13
12
1
1
0
0
0
0
0
0
0
0
1
1
2
11
12
11
2
1
2
19
19
15
14
19
11
0
0
1
1
1
0
0
1
1
1
0
0
1
19
12
19
1
0
2
13
15
19
13
11
11
0
0
1
19
1
0
0
1
19
1
0
0
1
1
2
1
1
0
1
19
14
19
12
10
10
0
1
2
12
1
1
1
2
11
2
1
1
0
0
0
0
0
0
1
2
19
13
12
10
10
0
1
19
12
11
11
19
11
10
11
19
1
0
1
1
1
0
0
0
1
12
19
12
11
11
1
2
12
19
11
12
12
12
10
11
11
1
1
2
19
1
0
0
1
1
12
12
14
19
13
19
12
12
11
11
12
19
12
10
10
10
10
11
19
2
1
0
0
1
19
11
11
19
19
19
12
19
11
10
10
12
19
12
10
10
10
10
11
11
1
0
0
0
1
1
1
1
2
3
2
11
11
11
10
10
11
11
11
10
11
12
12
12
12
2
1
0
0
0
0
0
0
0
0
0
11
12
12
11
10
11
11
11
10
11
19
19
12
19
19
1
0
0
0
0
1
1
1
0
0
12
19
19
11
10
11
19
12
12
12
13
12
12
13
13
2
0
0
0
0
1
19
1
0
0
19
14
13
11
10
1
12
19
12
19
11
10
11
12
19
1
0
0
0
0
1
11
1
0
0
12
19
12
12
13
13
13
12
13
12
13
11
12
19
12
2
1
2
2
2
1
11
1
1
0
11
12
13
19
19
19
19
12
13
19
13
19
13
12
13
12
19
12
19
19
12
13
19
2
0
10
11
19
13
13
13
12
12
19
19
13
12
13
19
12
19
12
12
12
13
19
3
19
2
0
11
13
13
12
10
10
11
12
13
12
11
11
19
13
13
13
12
12
12
13
12
12
11
1
0
11
19
19
12
10
10
11
19
13
12
1
1
1
2
19
12
19
13
19
19
11
11
11
1
0
11
13
19
13
11
10
11
13
19
19
2
0
0
1
1
2
2
19
3
2
1
1
19
1
0
10
11
12
19
11
10
11
14
19
19
2
0
0
0
0
0
1
1
1
0
0
1
1
1
0
10
10
11
11
1
10
11
19
19
13
1
0
0
0
0
0
0
0
0
0
0
0
0
0
0
11
13
19
13
1
0
0
0
0
1
19
11
12
19
12
10
10
10
10
10
11
19
1
0
0
19
14
19
19
2
1
1
0
0
1
1
1
2
19
12
11
11
11
10
11
12
12
1
1
1
12
19
14
13
12
19
2
1
1
0
0
0
1
12
12
12
19
12
11
11
19
11
11
12
19
12
13
19
1
1
1
2
19
1
0
1
1
1
11
19
12
13
19
12
12
13
14
3
19
12
19
2
1
1
0
0
1
1
1
0
1
19
11
11
11
11
12
19
13
13
19
19
19
13
12
1
1
0
0
0
0
0
0
0
0
1
1
2
11
12
11
2
1
2
19
19
15
14
19
11
0
0
1
1
1
0
0
1
1
1
0
0
1
19
12
19
1
0
2
13
15
19
13
11
11
0
0
1
19
1
0
0
1
19
1
0
0
1
1
2
1
1
0
1
19
14
19
12
10
10
0
1
2
12
1
1
1
2
11
2
1
1
0
0
0
0
0
0
1
2
19
13
12
10
10
0
1
19
12
11
11
19
11
10
11
19
1
0
1
1
1
0
0
0
1
12
19
12
11
11
1
2
12
19
11
12
12
12
10
11
11
1
1
2
19
1
0
0
1
1
12
12
14
19
13
19
12
12
11
11
12
19
12
10
10
10
10
11
19
2
1
0
0
1
19
11
11
19
19
19
12
19
11
10
10
12
19
12
10
10
10
10
11
11
1
0
0
0
1
1
1
1
2
3
2
11
11
11
10
10
11
11
11
10
11
12
12
12
12
2
1
0
0
0
0
0
0
0
0
0
11
12
12
11
10
11
11
11
10
11
19
19
12
19
19
1
0
0
0
0
1
1
1
0
0
12
19
19
11
10
11
19
12
12
12
13
12
12
13
13
2
0
0
0
0
1
19
1
0
0
19
14
13
11
10
1
12
19
12
19
11
10
11
12
19
1
0
0
0
0
1
11
1
0
0
12
19
12
12
13
13
13
12
13
12
13
11
12
19
12
2
1
2
2
2
1
11
1
1
0
11
12
13
19
19
19
19
12
13
19
13
19
13
12
13
12
19
12
19
19
12
13
19
2
0
10
11
19
13
13
13
12
12
19
19
13
12
13
19
12
19
12
12
12
13
19
3
19
2
0
11
13
13
12
10
10
11
12
13
12
11
11
19
13
13
13
12
12
12
13
12
12
11
1
0
11
19
19
12
10
10
11
19
13
12
1
1
1
2
19
12
19
13
19
19
11
11
11
1
0
1
3
19
13
11
10
11
13
19
19
2
0
0
1
1
2
2
19
3
2
1
1
19
1
0
0
1
2
19
11
10
11
14
19
19
2
0
0
0
0
0
1
1
1
0
0
1
1
1
0
0
0
1
11
1
10
11
19
19
13
1
0
0
0
0
0
0
0
0
0
0
0
0
0
0
11
13
19
13
1
0
0
0
0
1
19
11
12
19
12
10
10
10
10
10
11
19
1
0
0
19
14
19
19
2
1
1
0
0
1
1
1
2
19
12
11
11
11
10
11
12
12
1
1
1
12
19
14
13
12
19
2
1
1
0
0
0
1
12
12
12
19
12
11
11
19
11
11
12
19
12
13
19
1
1
1
2
19
1
0
1
1
1
11
19
12
13
19
12
12
13
14
3
19
12
19
2
1
1
0
0
1
1
1
0
1
19
11
11
11
11
12
19
13
13
19
19
19
13
12
1
1
0
0
0
0
0
0
0
0
1
1
2
11
12
11
2
1
2
19
19
15
14
19
11
0
0
1
1
1
0
0
1
1
1
0
0
1
19
12
19
1
0
2
13
15
19
13
11
11
0
0
1
19
1
0
0
1
19
1
0
0
1
1
2
1
1
0
1
19
14
19
12
10
10
0
1
2
12
1
1
1
2
11
2
1
1
0
0
0
0
0
0
1
2
19
13
12
10
10
0
1
19
12
11
11
19
11
10
11
19
1
0
1
1
1
0
0
0
1
12
19
12
11
11
1
2
12
19
11
12
12
12
10
11
11
1
1
2
19
1
0
0
1
1
12
12
14
19
13
19
12
12
11
11
12
19
12
10
10
10
10
11
19
2
1
0
0
1
19
11
11
19
19
19
12
19
11
10
10
2
19
12
10
10
10
10
11
11
1
0
0
0
1
1
1
1
2
3
2
11
11
11
10
10
11
11
11
10
11
12
12
12
12
2
1
0
0
0
0
0
0
0
0
0
11
12
12
11
10
11
11
11
10
11
19
19
12
19
19
1
0
0
0
0
1
1
1
0
0
12
19
19
11
10
11
19
12
12
12
13
12
12
13
13
2
0
0
0
0
1
19
1
0
0
19
14
13
11
10
1
12
19
12
19
11
10
11
12
19
1
0
0
0
0
1
11
1
0
0
12
19
12
12
13
13
13
12
13
12
13
11
12
19
12
2
1
2
2
2
1
11
1
1
0
11
12
13
19
19
19
19
12
13
19
13
19
13
12
13
12
19
12
19
19
12
13
19
2
0
10
11
9
13
13
13
12
12
19
19
13
12
13
19
12
19
12
12
12
13
19
3
19
2
0
11
13
13
12
10
10
11
12
13
12
11
11
19
13
13
13
12
12
12
13
12
12
11
1
0
11
19
19
12
10
10
11
19
13
12
1
1
1
2
19
12
19
13
19
19
11
11
11
1
0
1
3
19
13
11
10
11
13
19
19
2
0
0
1
1
2
2
19
3
2
1
1
19
1
0
0
1
2
19
11
10
11
14
19
19
2
0
0
0
0
0
1
1
1
0
0
1
1
1
0
0
0
1
11
1
10
11
19
19
13
1
0
0
0
0
0
0
0
0
0
0
0
0
0
0
0
0
0
0
0
0
0
0
0
0
0
0
0
0
0
0
0
0
0
0
